w3-Reading Data
…
New names:
Rows: 9471 Columns: 18
── Column specification
──────────────────────────────────────────────────────── Delimiter: "," chr
(2): Date, Time dbl (14): ...1, CO(GT), PT08.S1(CO), NMHC(GT), C6H6(GT),
PT08.S2(NMHC), NOx(... lgl (2): ...17, ...18
ℹ Use `spec()` to retrieve the full column specification for this data. ℹ
Specify the column types or set `show_col_types = FALSE` to quiet this message.
• `` -> `...1`
• `...16` -> `...17`
• `...17` -> `...18`

air_quality_data

# A tibble: 9,471 × 18
    ...1 Date       Time     `CO(GT)` `PT08.S1(CO)` `NMHC(GT)` `C6H6(GT)`
   <dbl> <chr>      <chr>       <dbl>         <dbl>      <dbl>      <dbl>
 1     1 10/03/2004 18.00.00      2.6          1360        150       11.9
 2     2 10/03/2004 19.00.00      2            1292        112        9.4
 3     3 10/03/2004 20.00.00      2.2          1402         88        9  
 4     4 10/03/2004 21.00.00      2.2          1376         80        9.2
 5     5 10/03/2004 22.00.00      1.6          1272         51        6.5
 6     6 10/03/2004 23.00.00      1.2          1197         38        4.7
 7     7 11/03/2004 00.00.00      1.2          1185         31        3.6
 8     8 11/03/2004 01.00.00      1            1136         31        3.3
 9     9 11/03/2004 02.00.00      0.9          1094         24        2.3
10    10 11/03/2004 03.00.00      0.6          1010         19        1.7
# ℹ 9,461 more rows
# ℹ 11 more variables: `PT08.S2(NMHC)` <dbl>, `NOx(GT)` <dbl>,
#   `PT08.S3(NOx)` <dbl>, `NO2(GT)` <dbl>, `PT08.S4(NO2)` <dbl>,
#   `PT08.S5(O3)` <dbl>, T <dbl>, RH <dbl>, AH <dbl>, ...17 <lgl>, ...18 <lgl>
…
read_fwf("https://www4.stat.ncsu.edu/~online/datasets/cigarettes.txt",fwf_widths(c(17,5,9,7,4),
     c("brand","tar","nicotine","weight","co")),
     skip=1)

Rows: 23 Columns: 5
── Column specification ────────────────────────────────────────────────────────

chr (1): brand
dbl (4): tar, nicotine, weight, co

ℹ Use `spec()` to retrieve the full column specification for this data.
ℹ Specify the column types or set `show_col_types = FALSE` to quiet this message.

# A tibble: 23 × 5
   brand          tar nicotine weight    co
   <chr>        <dbl>    <dbl>  <dbl> <dbl>
 1 Alpine        14.1     0.86  0.985  13.6
 2 Benson        16       1.06  1.09   16.6
 3 CamelLights    8       0.67  0.928  10.2
 4 Carlton        4.1     0.4   0.946   5.4
 5 Chesterfield  15       1.04  0.888  15  
 6 GoldenLights   8.8     0.76  1.03    9  
 7 Kent          12.4     0.95  0.922  12.3
 8 Kool          16.6     1.12  0.937  16.3
 9 L&M           14.9     1.02  0.886  15.4
10 LarkLights    13.7     1.01  0.964  13  
# ℹ 13 more rows
…
